{
  "project_info": {
    "project_number": "345263253026",
    "firebase_url": "https://ionic-pwa-sts.firebaseio.com",
    "project_id": "ionic-pwa-sts",
    "storage_bucket": "ionic-pwa-sts.appspot.com"
  },
  "client": [
    {
      "client_info": {
        "mobilesdk_app_id": "1:345263253026:android:c2ca233b275d1133",
        "android_client_info": {
          "package_name": "io.ionic.sts.pwa"
        }
      },
      "oauth_client": [
        {
          "client_id": "345263253026-6kjrj8r6mb90gearjf28d9cqquldihc1.apps.googleusercontent.com",
          "client_type": 3
        }
      ],
      "api_key": [
        {
          "current_key": "AIzaSyAsvp7OqrA-ddnqLr8CfSDNfbEv8DA2cAw"
        }
      ],
      "services": {
        "analytics_service": {
          "status": 1
        },
        "appinvite_service": {
          "status": 1,
          "other_platform_oauth_client": []
        },
        "ads_service": {
          "status": 2
        }
      }
    }
  ],
  "configuration_version": "1"
}